<svg width="1440" height="233" viewBox="0 0 1440 233" fill="none" xmlns="http://www.w3.org/2000/svg">
<path d="M2210.86 128.121V119.741C2212.95 119.861 2220.61 116.541 2216.83 110.711C2215.38 108.451 2214.17 108.141 2215.1 105.311C2216.13 102.251 2216.88 100.491 2215.51 97.3015C2214.46 94.8415 2213.35 93.4015 2213.88 90.5715C2214.31 88.3215 2216.05 86.5315 2215.55 84.0415C2215.13 82.0615 2213.45 81.4415 2212.6 79.7615C2211.36 77.3115 2212.56 74.2315 2212.14 71.6215C2211.79 69.4215 2208.93 65.0015 2206.77 67.8015C2206.13 68.6515 2206.05 70.3515 2205.72 71.3515C2205.24 72.9015 2204.42 74.3015 2203.95 75.8515C2203.15 78.5115 2203.89 81.3115 2203.58 84.0315C2203.27 86.6415 2201.49 88.7815 2201.44 91.4815C2201.4 93.6615 2202.32 95.4915 2202.3 97.6615C2202.28 100.171 2201.05 102.011 2199.95 104.221C2199.93 104.261 2199.91 104.301 2199.9 104.331C2199.61 104.061 2199.31 103.801 2199 103.581C2197.6 102.621 2194.63 102.771 2193.6 101.561C2192.29 100.001 2193.83 96.7215 2192.19 94.9215C2190.38 92.9315 2187.32 93.1415 2184.96 92.8315C2181.78 92.4315 2180.75 89.8415 2177.97 88.6415C2173.5 86.6815 2173.94 90.9015 2171.45 92.9715C2168.27 95.6115 2160.62 95.2915 2161.4 101.451C2161.74 104.151 2163.13 105.881 2162.85 108.701C2162.79 109.441 2162.73 110.201 2162.7 110.961C2162.53 110.741 2162.35 110.521 2162.2 110.291C2160.94 108.311 2161.84 107.851 2161.62 105.501C2161.44 103.451 2160.24 102.331 2158.69 101.081C2156.92 99.6615 2155.79 99.2615 2155.2 97.0715C2154.68 95.1115 2154.37 92.7715 2152.48 91.4815C2150.98 90.4415 2147.47 91.9715 2146.02 93.1815C2144.15 94.7515 2143.91 97.7115 2142.88 99.7915C2141.73 102.071 2139.32 102.981 2139.19 105.761C2139.04 108.641 2141.74 110.471 2141.07 113.441C2140.3 116.951 2139.45 118.191 2141.11 121.761C2142.49 124.721 2141.02 124.521 2140.47 127.291C2140.05 129.391 2141.36 133.411 2143.9 133.281C2145.88 133.181 2147.37 131.351 2149.05 130.761L2149.45 139.841L2123.93 142.621L2123.79 131.911C2124.47 132.291 2126.23 133.131 2128.41 132.601C2131.62 131.831 2134.32 129.541 2134.87 126.211C2135.57 122.041 2132.33 118.901 2132.35 115.101C2132.35 113.211 2134.05 111.941 2134.57 110.161C2135.29 107.711 2134.44 105.201 2132.94 103.211C2131.69 101.571 2129.78 100.861 2128.52 99.4015C2126.33 96.8815 2127.34 93.1715 2122.95 92.5415C2118.58 91.9415 2117.83 94.0515 2115.05 96.6015C2113.45 98.0615 2110.4 99.1115 2109.44 101.071C2108.29 103.421 2109.32 106.971 2108.85 109.571C2108.53 111.321 2107.59 112.931 2107.36 114.721C2106.99 117.681 2108.76 117.801 2110.12 119.861C2111.91 122.531 2109.11 123.101 2108.2 125.441C2107.09 128.291 2108.06 132.651 2111.31 133.291C2113.84 133.801 2116.3 132.571 2117.47 132.011L2117.33 143.421C2092.71 146.211 2086.52 145.411 2086.52 145.411L2086.37 135.051C2085.87 134.701 2086.69 134.311 2087.72 133.921C2089.67 133.201 2091.89 133.201 2093.74 132.241C2101.05 128.421 2094 124.681 2095.16 119.201C2095.62 116.981 2097.81 115.081 2097.71 112.791C2097.62 110.341 2095.65 108.731 2093.87 107.401C2091.61 105.681 2091.15 105.061 2090.51 102.391C2089.95 100.061 2089.1 96.4315 2086.63 95.3315C2084.35 94.3315 2080.81 95.9715 2080.24 98.3415C2079.58 100.971 2081.25 103.271 2078.53 104.971C2077.38 105.671 2076.26 105.281 2075.53 107.031C2075.08 108.131 2075.38 109.391 2075.53 110.501C2075.84 112.551 2076.25 113.351 2074.79 114.611C2073.37 113.351 2071.71 112.401 2070.47 110.921C2068.79 108.901 2069.72 106.051 2068.09 103.911C2065.17 100.051 2061.04 101.941 2058.31 104.531C2055.94 106.781 2055.62 105.521 2053.01 104.791C2050.22 104.021 2047.48 105.721 2046.97 108.371C2046.25 112.221 2046.48 110.691 2042.95 111.611C2040.43 112.291 2038.31 115.531 2037.83 117.951C2037.25 120.901 2038.37 122.411 2040.83 123.561C2043.16 124.671 2045.5 125.511 2043.15 127.611C2041.49 129.061 2039.27 130.111 2040.62 132.841C2041.76 135.171 2043.56 134.211 2045.44 134.381C2047.59 134.581 2049.53 136.401 2051.64 136.311C2052.93 136.251 2054.16 135.851 2055.39 135.421V145.171L2023.9 143.891V135.221C2024.3 135.081 2024.71 134.891 2025.24 134.611C2025.95 134.251 2025.78 133.741 2026.68 133.531C2027.43 133.371 2027.93 133.951 2028.61 133.971C2032.29 134.151 2037.29 131.851 2035.45 127.611C2034.86 126.251 2033.84 125.561 2033.54 124.151C2033.15 122.341 2033.51 121.941 2032.04 120.531C2030.01 118.621 2027.28 118.071 2026.28 115.401C2025.36 112.961 2026.13 111.031 2022.91 110.281C2020.11 109.641 2018.13 110.981 2016.71 113.291C2015.13 115.891 2014.71 116.591 2011.74 117.121C2010.85 117.281 2010.12 117.521 2009.49 117.841C2009.49 117.681 2009.49 117.511 2009.48 117.371C2009.25 115.561 2007.49 113.601 2005.58 113.001C2003.66 112.401 2002.1 110.921 2002.1 109.721C2002.1 108.521 2000.85 107.291 1999.31 106.991C1997.77 106.691 1994.32 106.511 1991.65 106.581C1988.97 106.651 1986.08 107.821 1985.24 109.171C1984.39 110.531 1983.71 111.641 1983.71 111.641C1983.71 111.641 1982.89 110.951 1981.9 110.131C1980.91 109.311 1979.14 106.051 1978 102.911C1976.85 99.7515 1974.34 97.0415 1972.43 96.8915C1970.51 96.7415 1968.62 98.0915 1968.25 99.8915C1967.86 101.691 1965.67 104.651 1963.37 106.451C1961.07 108.251 1959.26 111.131 1959.33 112.861C1959.41 114.601 1959.28 117.361 1959.05 119.011C1958.82 120.661 1959.51 122.511 1960.58 123.111C1961.64 123.711 1962.77 125.991 1963.09 128.171C1963.4 130.341 1964.9 132.751 1966.44 133.481C1967.21 133.871 1968.23 134.181 1967.87 134.331V147.991L1924.26 146.181V140.861C1923.82 140.861 1924.81 140.791 1925.71 140.631C1927.44 140.301 1928.19 137.231 1927.39 133.801C1926.58 130.381 1926.95 125.831 1928.23 123.701C1929.5 121.591 1929.07 116.541 1927.28 112.501L1927.09 112.061C1925.28 108.011 1923.53 102.051 1923.19 98.7715C1922.84 95.5215 1921.61 93.1815 1920.46 93.5815C1919.3 93.9815 1917.13 97.7115 1915.64 101.861L1915.18 103.101C1913.68 107.251 1913.22 113.181 1914.14 116.281C1915.07 119.381 1915.07 124.511 1914.14 127.701C1913.22 130.891 1913.41 134.951 1914.57 136.751C1915.09 137.561 1917.93 138.831 1918.55 139.361V144.491H1908.1V135.541C1908.69 135.311 1909.43 134.871 1909.93 134.381C1910.93 133.401 1911 131.151 1910.1 129.411C1909.19 127.661 1909.44 123.951 1910.65 121.151C1911.85 118.361 1911.85 113.541 1910.65 110.411C1909.44 107.291 1908.14 101.401 1907.76 97.3515L1907.7 96.6315C1907.31 92.5815 1906.26 89.6915 1905.36 90.2215C1904.45 90.7515 1903.15 94.1115 1902.45 97.6815C1901.74 101.251 1900.1 106.981 1898.8 110.411C1897.5 113.841 1897.16 118.361 1898.06 120.471C1898.98 122.571 1899.47 125.921 1899.2 127.901C1898.93 129.891 1899.91 132.441 1901.4 133.551C1902.21 134.181 1902.07 135.231 1902.07 135.231V143.931L1880.51 142.871V136.801H1866.16L1860.54 129.791H1831.74V117.651H1797.5V110.471L1790.87 101.361H1765.74L1761.05 106.051H1738.96L1733.44 108.251V94.0915L1727.92 92.8015L1721.85 84.5115L1712.47 85.0715V72.0815H1715.78L1700.31 39.7815L1684.87 72.0815H1687.07V84.5115H1682.66L1672.71 61.8715L1657.25 93.3515H1660.02V105.501H1651.19L1645.11 113.231L1640.14 114.521V128.701L1636.02 124.591H1611.79L1607.23 120.031H1573.75L1565.84 127.941H1532.98V134.841L1517.16 139.701V145.391H1509.45V127.121H1502.96V145.391H1454.27V132.061H1449.54V145.391H1397.01V132.061H1392.28V145.391H1343.92V127.121H1337.43V145.391L1333.37 140.521H1314.31V131.411L1292.2 127.161V119.581L1286.42 115.631H1280.38V98.1015C1280.38 92.3115 1277.24 87.4415 1273.04 86.0115V77.9515H1268.01V85.9715C1263.74 87.3715 1260.58 92.2615 1260.58 98.1015V115.631H1247.99V108.341L1245.27 102.281H1199.03V94.9915L1193.25 88.6215H1147.02V80.9715H1140.64V88.6215H1133.16V80.9715H1128.76V88.6215L1116.48 107.451V115.471H1090.18V123.811H1079.18V104.741L1067.61 95.8915L1058.75 103.721V89.7615H1040.3V82.6115H1034.17V89.7615H1021.91V84.9915H1016.8V89.7615H1002.5L996.78 115.641H970.23V109.861H966.15V115.641H953.55V110.861H948.45V115.641H938.56V105.421L929.04 96.1315L918.48 106.101V124.831H902.48V117.341L906.73 113.081L875.92 72.8515L847.66 113.251L828.27 93.8415L820.1 103.641V98.6015H813.62V111.391L802.72 124.471H808.51V142.341H787.12V130.001H780.73L776.43 121.801H766.6L762.59 130.541V146.571H753.49V126.901H736.37V144.381H726.18V115.441L720.36 109.621V96.1415H689.87V123.981H678.95V89.3915H663.62V76.2715H650.86V63.4515L645.58 58.1715H623.12V124.491H608.18V70.3715H586.52V79.0515H579.67V63.5115H568.25V112.431H557.97V124.171H544.76V95.3015H525.8V80.0915H512.72L505.13 87.6715V108.511H491.43V142.771H475.28V106.071L469.9 100.691H446.92V136.391H436.17V122.621H430.9V115.511H407.77V128.861H401.55V108.401L403.33 106.621L392.23 95.5315H365.71V91.8215H360.76V96.2215H356.1V112.431H349.5V101.161H344.79C344.79 95.7015 340.37 91.2715 334.9 91.2715H321.21V83.1215H311.95V92.7815H299.57V101.231C291.81 101.231 285.54 107.501 285.54 115.261V123.151H270.96V104.391H264.89V91.0015H250.56V79.5415L252.72 77.3815L244.11 68.7815H221.22V80.9615H207.36V75.4615L209.52 73.3115L200.91 64.7015H176.74V101.121H146.17V85.4215L112.22 71.4115V60.8015L107.12 56.1415L102.03 60.3815V72.2715L88.4401 81.1815V22.3915H80.8001L59.1601 0.521484L38.7901 22.3915H29.4501V103.891L14.5901 95.8215L0.160065 106.001L-3.65994 103.041V97.1015H-11.7199V92.0015H-15.9699V97.1015L-28.6999 92.8515L-52.0399 101.341L-65.1999 94.5615H-87.6899V88.6115H-92.3599V96.6815L-105.94 102.201V333.141H2236.43V121.181L2210.91 128.201L2210.86 128.121ZM57.7101 54.0615H49.5301V28.5615C49.5301 26.4415 51.2701 24.6915 53.3901 24.6915H53.8401C55.9701 24.6915 57.7101 26.4415 57.7101 28.5615V54.0615ZM69.3201 54.0615H61.1401V28.5615C61.1401 26.4415 62.8801 24.6915 65.0001 24.6915H65.4601C67.5801 24.6915 69.3201 26.4415 69.3201 28.5615V54.0615ZM222.16 117.751H206.7V99.9315C206.7 95.6615 210.15 92.2015 214.43 92.2015C218.71 92.2015 222.16 95.6615 222.16 99.9315V117.751ZM317.28 111.551H308.99V100.361H317.28V111.551ZM328.64 111.551H320.35V100.361H328.64V111.551ZM340.01 111.551H331.72V100.361H340.01V111.551ZM383.95 113.741H378.69V107.651H383.95V113.741ZM393.68 113.741H388.42V107.651H393.68V113.741ZM831.75 131.511H825.98V124.291H831.75V131.511ZM879.9 121.461H870.85V110.141H879.9V121.461ZM1342.07 160.341C1347.06 153.981 1355.61 149.781 1365.32 149.781C1375.03 149.781 1383.6 153.981 1388.59 160.341H1342.07ZM1399.38 160.341C1404.37 153.981 1412.91 149.781 1422.64 149.781C1432.37 149.781 1440.92 153.981 1445.89 160.341H1399.37H1399.38ZM1456.7 160.341C1461.68 153.981 1470.23 149.781 1479.95 149.781C1489.67 149.781 1498.23 153.981 1503.22 160.341H1456.7ZM1990.97 145.931C1990.97 145.931 1982.56 147.101 1975.84 146.831V134.011C1975.49 133.901 1976.49 133.771 1977.26 133.691C1978.8 133.541 1980.68 132.501 1981.45 131.371C1982.21 130.241 1982.84 129.321 1982.84 129.321C1982.84 129.321 1983.77 130.481 1984.93 131.911C1986.08 133.341 1988.21 134.331 1989.68 134.111C1990.2 134.031 1990.77 133.951 1990.98 133.891V133.801C1991.12 133.821 1991.08 133.861 1990.98 133.891V145.931H1990.97ZM2018.51 143.841C2011.22 141.991 1997.85 144.841 1997.85 144.841V133.671C1997.85 133.671 1999.38 133.611 2000.82 133.561C2002.53 133.501 2004.47 132.941 2005.87 132.201C2006.06 132.631 2006.28 133.071 2006.59 133.471C2010.5 138.511 2015.34 132.801 2018.52 134.191V143.831L2018.51 143.841ZM2061.2 145.401L2061.02 134.341C2062.28 134.251 2063.8 135.591 2065.83 136.911C2068.49 138.651 2072.49 137.901 2074.98 136.051C2075.54 135.651 2075.94 135.211 2076.26 134.801C2077.7 135.801 2079.47 136.041 2079.96 135.941L2080.2 145.401H2061.2ZM2156.35 139.561L2156.01 131.241C2155.92 131.161 2155.89 131.091 2156.01 131.011V131.241C2156.23 131.411 2156.86 131.591 2157.46 131.721C2159.11 132.131 2160.91 132.061 2161.61 130.251C2161.86 129.621 2161.18 128.541 2161.22 127.791C2161.29 126.391 2161.45 126.621 2162.22 125.561C2163.57 123.721 2165.29 122.291 2166.07 120.421C2167.71 121.561 2169.71 122.131 2171.67 123.691C2173.04 124.801 2174.45 125.861 2175.97 126.611L2176.23 135.651L2156.34 139.561H2156.35ZM2203.97 130.261L2185.45 134.811L2185.28 126.671C2186.76 126.211 2188.21 125.661 2189.61 125.211C2192.39 124.301 2196.47 124.171 2197.11 120.681C2197.61 117.971 2195.03 116.951 2194.99 114.541C2194.93 112.121 2196.98 112.031 2198.86 111.471C2199.59 114.521 2201.82 117.411 2204.65 118.831L2203.98 130.261H2203.97Z" fill="#77B4CA"/>
<path d="M49.5301 54.0615H57.7101V28.5615C57.7101 26.4415 55.9701 24.6915 53.8401 24.6915H53.3901C51.2701 24.6915 49.5301 26.4415 49.5301 28.5615V54.0615Z" fill="white"/>
<path d="M61.1401 54.0615H69.3201V28.5615C69.3201 26.4415 67.5801 24.6915 65.4601 24.6915H65.0001C62.8801 24.6915 61.1401 26.4415 61.1401 28.5615V54.0615Z" fill="white"/>
</svg>
