<svg width="58" height="58" viewBox="0 0 58 58" fill="none" xmlns="http://www.w3.org/2000/svg">
<rect x="1.24115" y="3.34098" width="52.8" height="52.8002" rx="26.4" transform="rotate(-2.00001 1.24115 3.34098)" stroke="#EC5432" stroke-width="2.4"/>
<path d="M32.3265 21.1958L13.771 21.8438L14.419 40.3993L32.9745 39.7514L32.3265 21.1958Z" stroke="#EC5432" stroke-width="2.4" stroke-miterlimit="10"/>
<path d="M43.5782 39.3826L32.9751 39.7529L32.0957 14.5703L42.8588 18.7802L43.5782 39.3826Z" stroke="#EC5432" stroke-width="2.4" stroke-miterlimit="10"/>
<path d="M21.9225 25.5407L17.8857 25.6816L18.0263 29.7061L22.063 29.5652L21.9225 25.5407Z" fill="#EC5432"/>
<path d="M38.9535 20.966L36.3027 21.0586L36.5342 27.6856L39.1849 27.593L38.9535 20.966Z" fill="#EC5432"/>
<path d="M39.2773 30.2414L36.6265 30.334L36.8116 35.6356L39.4624 35.543L39.2773 30.2414Z" fill="#EC5432"/>
<path d="M28.5494 25.3102L24.5127 25.4512L24.6532 29.4757L28.69 29.3347L28.5494 25.3102Z" fill="#EC5432"/>
<path d="M22.1539 32.1676L18.1172 32.3086L18.2577 36.3331L22.2945 36.1921L22.1539 32.1676Z" fill="#EC5432"/>
<path d="M28.7809 31.9352L24.7441 32.0762L24.8847 36.1007L28.9214 35.9597L28.7809 31.9352Z" fill="#EC5432"/>
</svg>
