<svg width="58" height="58" viewBox="0 0 58 58" fill="none" xmlns="http://www.w3.org/2000/svg">
<rect x="1.84076" y="3.34489" width="52.8" height="52.8002" rx="26.4" transform="rotate(-2.00001 1.84076 3.34489)" stroke="#20667D" stroke-width="2.4"/>
<path d="M19.3097 21.9445L10.9382 29.8021L19.8374 37.0566" stroke="#20667D" stroke-width="2.4"/>
<path d="M38.9784 21.1668L47.8776 28.4212L39.5061 36.2788" stroke="#20667D" stroke-width="2.4"/>
<mask id="mask0_761_12359" style="mask-type:alpha" maskUnits="userSpaceOnUse" x="17" y="19" width="25" height="19">
<rect x="17.2129" y="20.291" width="23.7618" height="17.1614" transform="rotate(-2.00001 17.2129 20.291)" fill="#D9D9D9"/>
</mask>
<g mask="url(#mask0_761_12359)">
<rect width="2.64021" height="33.0027" transform="matrix(0.882947 0.469473 -0.46947 0.882948 35.647 14.0762)" fill="#20667D"/>
</g>
</svg>
