<svg width="84" height="85" viewBox="0 0 84 85" fill="none" xmlns="http://www.w3.org/2000/svg">
<path fill-rule="evenodd" clip-rule="evenodd" d="M41.9999 82.0819C63.6782 82.0819 81.2518 64.5082 81.2518 42.83C81.2518 21.1518 63.6782 3.57812 41.9999 3.57812C20.3217 3.57812 2.74805 21.1518 2.74805 42.83C2.74805 64.5082 20.3217 82.0819 41.9999 82.0819Z" fill="#EC5432"/>
<path fill-rule="evenodd" clip-rule="evenodd" d="M41.9999 78.0319C61.4414 78.0319 77.2018 62.2715 77.2018 42.83C77.2018 23.3885 61.4414 7.62812 41.9999 7.62812C22.5585 7.62812 6.79805 23.3885 6.79805 42.83C6.79805 62.2715 22.5585 78.0319 41.9999 78.0319ZM41.9999 82.0819C63.6782 82.0819 81.2518 64.5082 81.2518 42.83C81.2518 21.1518 63.6782 3.57812 41.9999 3.57812C20.3217 3.57812 2.74805 21.1518 2.74805 42.83C2.74805 64.5082 20.3217 82.0819 41.9999 82.0819Z" fill="#FDE577"/>
<rect x="21.75" y="36.5742" width="40.5" height="10.8" fill="#FDE577"/>
<g style="mix-blend-mode:multiply">
<path fill-rule="evenodd" clip-rule="evenodd" d="M8.63101 22.1406C-0.773632 37.282 1.09759 57.435 14.2447 70.5821C27.3917 83.7291 47.5447 85.6003 62.6861 76.1957L8.63101 22.1406Z" fill="#DEDEDE"/>
</g>
</svg>
