<svg width="72" height="100" viewBox="0 0 72 100" fill="none" xmlns="http://www.w3.org/2000/svg">
<path d="M20.8262 57.9883C9.53552 57.9883 0.387695 67.1893 0.387695 78.5455L0.387695 100.002L71.2752 100.002V78.5455C71.2752 67.1893 62.1274 57.9883 50.8367 57.9883L35.8369 76.9701L20.8371 57.9883H20.8262Z" fill="#2D9677"/>
<path d="M50.8367 57.9883L35.8369 76.9701L20.8262 57.9883L50.8367 57.9883Z" fill="white"/>
<path d="M35.8371 53.0975C50.3869 53.0975 62.1819 41.2339 62.1819 26.5995C62.1819 11.9651 50.3869 0.101562 35.8371 0.101562C21.2872 0.101562 9.49219 11.9651 9.49219 26.5995C9.49219 41.2339 21.2872 53.0975 35.8371 53.0975Z" fill="#DEDC00"/>
<path d="M37.077 35.2319H33.9443C32.5194 35.2319 32.1278 34.838 32.1278 33.4048L32.1278 30.7462C32.1278 28.4269 32.3779 27.6391 34.1836 25.3197L37.512 21.1295C38.3496 20.0902 38.5454 19.4994 38.5454 18.3725V17.2894C38.5454 15.3201 37.7622 14.5324 36.0436 14.5324C34.325 14.5324 33.5418 15.3201 33.5418 17.2894V19.9479C33.5418 21.3812 33.1502 21.775 31.7253 21.775H28.6905C27.2656 21.775 26.874 21.3812 26.874 19.9479L26.874 18.471C26.874 10.7798 29.2235 7.62891 36.0436 7.62891C42.8637 7.62891 45.5069 11.0752 45.5069 17.4863V17.9786C45.5069 20.495 45.1153 21.6765 43.4946 23.7443L40.4054 27.6391C39.0784 29.313 38.8826 29.8054 38.8826 31.534V33.4048C38.8826 34.838 38.491 35.2319 37.0661 35.2319H37.077ZM39.2307 42.0806C39.2307 44.1046 38.2517 45.0893 36.2394 45.0893H34.9668C33.0088 45.0893 31.9755 44.1046 31.9755 42.0806V40.8006C31.9755 38.8313 33.0088 37.7919 34.9668 37.7919H36.2394C38.2517 37.7919 39.2307 38.8313 39.2307 40.8006V42.0806Z" fill="#2D9677"/>
<path d="M15.8223 69.4649L20.8258 57.9883L35.8365 76.9701H23.4255L23.4473 69.5962L15.8223 69.4649Z" fill="#35B08B"/>
<path d="M55.8403 69.4649L50.8367 57.9883L35.8369 76.9701H48.2371L48.2153 69.5962L55.8403 69.4649Z" fill="#35B08B"/>
</svg>
